{
  "key": "my-app-key",
  "name": "My App",
  "baseUrl": "https://b09e57f5.eu.ngrok.io",
  "authentication": {
    "type": "none"
  },
  "modules": {
    "generalPages": [
      {
        "url": "/hello.html",
        "key": "hello-page",
        "name": {
          "value": "Hello"
        }
      }
    ],
    "dialogs": [
      {
        "url": "/dialog.html",
        "options": {
          "size": "small",
          "header": {
            "value": "Dialog"
          }
        },
        "key": "dialog-key"
      }
    ]
  }
}